<?xml version="1.0" encoding="UTF-8" standalone="no"?>
<svg
   xmlns:dc="http://purl.org/dc/elements/1.1/"
   xmlns:cc="http://creativecommons.org/ns#"
   xmlns:rdf="http://www.w3.org/1999/02/22-rdf-syntax-ns#"
   xmlns:svg="http://www.w3.org/2000/svg"
   xmlns="http://www.w3.org/2000/svg"
   xmlns:sodipodi="http://sodipodi.sourceforge.net/DTD/sodipodi-0.dtd"
   xmlns:inkscape="http://www.inkscape.org/namespaces/inkscape"
   height="100pt"
   viewBox="0 0 100 100"
   width="100pt"
   version="1.1"
   id="svg4530"
   sodipodi:docname="alp.svg"
   inkscape:version="0.92.4 (5da689c313, 2019-01-14)">
  <metadata
     id="metadata4536">
    <rdf:RDF>
      <cc:Work
         rdf:about="">
        <dc:format>image/svg+xml</dc:format>
        <dc:type
           rdf:resource="http://purl.org/dc/dcmitype/StillImage" />
        <dc:title></dc:title>
      </cc:Work>
    </rdf:RDF>
  </metadata>
  <defs
     id="defs4534" />
  <sodipodi:namedview
     pagecolor="#ffffff"
     bordercolor="#666666"
     borderopacity="1"
     objecttolerance="10"
     gridtolerance="10"
     guidetolerance="10"
     inkscape:pageopacity="0"
     inkscape:pageshadow="2"
     inkscape:window-width="1920"
     inkscape:window-height="1027"
     id="namedview4532"
     showgrid="false"
     inkscape:zoom="3.5548687"
     inkscape:cx="51.905573"
     inkscape:cy="45.197585"
     inkscape:window-x="-8"
     inkscape:window-y="-8"
     inkscape:window-maximized="1"
     inkscape:current-layer="svg4530" />
  <path
     d="m 80.491042,54.031907 c 2.145597,0 3.884531,-1.743891 3.884531,-3.895601 V 31.330142 C 93.086938,29.524622 99.654984,21.771464 99.654984,12.50876 V 4.1682178 c 0,-2.1517117 -1.738936,-3.89560072 -3.884532,-3.89560072 -2.145598,0 -3.884532,1.74388902 -3.884532,3.89560072 V 12.50876 c 0,5.068084 -3.307921,9.373789 -7.871486,10.865835 C 81.884011,10.290854 70.534654,0.27261708 56.895549,0.27261708 H 42.971172 C 29.331308,0.27261708 17.98195,10.290854 15.851528,23.374595 11.287962,21.882549 7.9800412,17.576844 7.9800412,12.50876 V 4.1682178 c 0,-2.1517117 -1.7389348,-3.89560072 -3.8845314,-3.89560072 -2.1455967,0 -3.88453154,1.74388902 -3.88453154,3.89560072 V 12.50876 c 0,9.262704 6.56804474,17.015862 15.27940974,18.821382 v 18.806164 c 0,2.15171 1.738935,3.895601 3.884531,3.895601 h 26.67353 v 7.532508 H 34.652813 c -18.990959,0 -34.44183474,15.494144 -34.44183474,34.539979 0,2.15171 1.73893484,3.895601 3.88453154,3.895601 H 95.770452 c 2.145596,0 3.884532,-1.743891 3.884532,-3.895601 0,-19.045835 -15.450876,-34.539979 -34.441835,-34.539979 H 53.817513 V 54.031907 Z M 91.603684,92.208794 H 8.2622767 C 10.14764,79.298529 21.264076,69.355616 34.652811,69.355616 h 30.560338 c 13.388737,0 24.505172,9.942913 26.390535,22.853178 z M 23.259451,27.831709 c 0,-10.900074 8.84262,-19.7678906 19.711721,-19.7678906 h 13.924377 c 10.868342,0 19.710961,8.8678166 19.710961,19.7678906 V 46.240705 H 23.259451 Z m 45.837471,-8.339782 c 0,2.150951 -1.738936,3.895601 -3.884532,3.895601 H 34.65357 c -2.145596,0 -3.884531,-1.74465 -3.884531,-3.895601 0,-2.151709 1.738935,-3.8956 3.884531,-3.8956 h 30.558061 c 2.146355,0 3.885291,1.743891 3.885291,3.8956 z m -7.640085,15.322191 c 0,2.151709 -1.738934,3.8956 -3.884531,3.8956 h -15.27941 c -2.144839,0 -3.884532,-1.743891 -3.884532,-3.8956 0,-2.151712 1.739693,-3.895601 3.884532,-3.895601 h 15.27941 c 2.145597,0 3.884531,1.743889 3.884531,3.895601 z m 0,0"
     id="path4528"
     style="fill:#666691;fill-opacity:1;stroke-width:0.19450311"
     inkscape:connector-curvature="0" />
</svg>
